digmus - First explorations
…
Hmm, still not that useful. And I still can’t seem to dig out what these fields are.

Let’s try this pivot function.

mfr$dfm

# A tibble: 35 × 18
   i_track meta  type     name  text  program channel key    note velocity ticks
     <dbl> <lgl> <chr>    <chr> <chr>   <dbl>   <dbl> <chr> <dbl>    <dbl> <dbl>
 1       0 TRUE  track_n… ""     <NA>     NaN     NaN <NA>    NaN      NaN     0
 2       0 TRUE  text      <NA> "cre…     NaN     NaN <NA>    NaN      NaN     0
 3       0 TRUE  text      <NA> "GNU…     NaN     NaN <NA>    NaN      NaN     0
 4       0 TRUE  time_si…  <NA>  <NA>     NaN     NaN <NA>    NaN      NaN     0
 5       0 TRUE  set_tem…  <NA>  <NA>     NaN     NaN <NA>    NaN      NaN     0
 6       0 TRUE  end_of_…  <NA>  <NA>     NaN     NaN <NA>    NaN      NaN  6528
 7       1 FALSE program…  <NA>  <NA>      19       0 <NA>    NaN      NaN     0
 8       1 FALSE program…  <NA>  <NA>      19       0 <NA>    NaN      NaN     0
 9       1 TRUE  instrum… "chu…  <NA>     NaN     NaN <NA>    NaN      NaN     0
10       1 TRUE  key_sig…  <NA>  <NA>     NaN     NaN Dm      NaN      NaN     0
# ℹ 25 more rows
# ℹ 7 more variables: b <dbl>, i_note <dbl>, tempo <dbl>, numerator <dbl>,
#   denominator <dbl>, clocks_per_click <dbl>,
#   notated_32nd_notes_per_beat <dbl>
…
